Data Wrangling 1
…
relig_income |> pivot_longer("<$10k":"Don't know/refused", names_to = "income", values_to = "frequency")

pivot_longer(relig_income, `<$10k`:`Don't know/refused`, names_to = "income", values_to = "frequency")
```

---

# tb dataset 

``` r
who
```

```
## # A tibble: 7,240 × 60
##    country  iso2  iso3   year new_sp_m014 new_sp_m1524 new_sp_m2534 new_sp_m3544
##    <chr>    <chr> <chr> <dbl>       <dbl>        <dbl>        <dbl>        <dbl>
##  1 Afghani… AF    AFG    1980          NA           NA           NA           NA
##  2 Afghani… AF    AFG    1981          NA           NA           NA           NA
##  3 Afghani… AF    AFG    1982          NA           NA           NA           NA
##  4 Afghani… AF    AFG    1983          NA           NA           NA           NA
##  5 Afghani… AF    AFG    1984          NA           NA           NA           NA
##  6 Afghani… AF    AFG    1985          NA           NA           NA           NA
##  7 Afghani… AF    AFG    1986          NA           NA           NA           NA
##  8 Afghani… AF    AFG    1987          NA           NA           NA           NA
##  9 Afghani… AF    AFG    1988          NA           NA           NA           NA
## 10 Afghani… AF    AFG    1989          NA           NA           NA           NA
## # ℹ 7,230 more rows
## # ℹ 52 more variables: new_sp_m4554 <dbl>, new_sp_m5564 <dbl>,
## #   new_sp_m65 <dbl>, new_sp_f014 <dbl>, new_sp_f1524 <dbl>,
## #   new_sp_f2534 <dbl>, new_sp_f3544 <dbl>, new_sp_f4554 <dbl>,
## #   new_sp_f5564 <dbl>, new_sp_f65 <dbl>, new_sn_m014 <dbl>,
## #   new_sn_m1524 <dbl>, new_sn_m2534 <dbl>, new_sn_m3544 <dbl>,
## #   new_sn_m4554 <dbl>, new_sn_m5564 <dbl>, new_sn_m65 <dbl>, …
```
…
# First, pivot longer

``` r
tb2 <- who %>% 
  pivot_longer(
    !c(country, iso2, iso3, year), 
    names_to = "demography", 
    values_to = "n", 
    values_drop_na = TRUE
  )
tb2
```

```
## # A tibble: 76,046 × 6
##    country     iso2  iso3   year demography       n
##    <chr>       <chr> <chr> <dbl> <chr>        <dbl>
##  1 Afghanistan AF    AFG    1997 new_sp_m014      0
##  2 Afghanistan AF    AFG    1997 new_sp_m1524    10
##  3 Afghanistan AF    AFG    1997 new_sp_m2534     6
##  4 Afghanistan AF    AFG    1997 new_sp_m3544     3
##  5 Afghanistan AF    AFG    1997 new_sp_m4554     5
##  6 Afghanistan AF    AFG    1997 new_sp_m5564     2
##  7 Afghanistan AF    AFG    1997 new_sp_m65       0
##  8 Afghanistan AF    AFG    1997 new_sp_f014      5
##  9 Afghanistan AF    AFG    1997 new_sp_f1524    38
## 10 Afghanistan AF    AFG    1997 new_sp_f2534    36
## # ℹ 76,036 more rows
```
…
--

``` r
tb2 %>% separate(demography, c("sp", "sex", "age"), c(7,8)) # 3 columns with 2 points of separation
```

```
## # A tibble: 76,046 × 8
##    country     iso2  iso3   year sp      sex   age       n
##    <chr>       <chr> <chr> <dbl> <chr>   <chr> <chr> <dbl>
##  1 Afghanistan AF    AFG    1997 new_sp_ m     014       0
##  2 Afghanistan AF    AFG    1997 new_sp_ m     1524     10
##  3 Afghanistan AF    AFG    1997 new_sp_ m     2534      6
##  4 Afghanistan AF    AFG    1997 new_sp_ m     3544      3
##  5 Afghanistan AF    AFG    1997 new_sp_ m     4554      5
##  6 Afghanistan AF    AFG    1997 new_sp_ m     5564      2
##  7 Afghanistan AF    AFG    1997 new_sp_ m     65        0
##  8 Afghanistan AF    AFG    1997 new_sp_ f     014       5
##  9 Afghanistan AF    AFG    1997 new_sp_ f     1524     38
## 10 Afghanistan AF    AFG    1997 new_sp_ f     2534     36
## # ℹ 76,036 more rows
```
…
# Regular expressions come back!

``` r
tb3 = who %>% pivot_longer(
  !c(country, iso2, iso3, year), 
  names_to = c("sp", "sex", "age"), 
  names_pattern = "new_?(.{2,3})_(.)(.+)", # can´t believe I got this right...
  values_to = "n", 
  values_drop_na = TRUE)
tb3
```

```
## # A tibble: 76,046 × 8
##    country     iso2  iso3   year sp    sex   age       n
##    <chr>       <chr> <chr> <dbl> <chr> <chr> <chr> <dbl>
##  1 Afghanistan AF    AFG    1997 sp    m     014       0
##  2 Afghanistan AF    AFG    1997 sp    m     1524     10
##  3 Afghanistan AF    AFG    1997 sp    m     2534      6
##  4 Afghanistan AF    AFG    1997 sp    m     3544      3
##  5 Afghanistan AF    AFG    1997 sp    m     4554      5
##  6 Afghanistan AF    AFG    1997 sp    m     5564      2
##  7 Afghanistan AF    AFG    1997 sp    m     65        0
##  8 Afghanistan AF    AFG    1997 sp    f     014       5
##  9 Afghanistan AF    AFG    1997 sp    f     1524     38
## 10 Afghanistan AF    AFG    1997 sp    f     2534     36
## # ℹ 76,036 more rows
```
…
# More pivots

- Sometimes two columns are stored in the same one and must be separated

- This dataset has both problems!

``` r
w_data = 'https://raw.githubusercontent.com/YonatanRA/-weather-project-data-cleaning-SQL-/master/weather-raw.csv'
weather <- as_tibble(read.csv(w_data, stringsAsFactors = FALSE))
weather
```

```
## # A tibble: 22 × 35
##    id       year month element    d1    d2    d3    d4    d5    d6    d7    d8
##    <chr>   <int> <int> <chr>   <dbl> <dbl> <dbl> <dbl> <dbl> <dbl> <dbl> <dbl>
##  1 MX17004  2010     1 tmax       NA  NA    NA      NA  NA      NA    NA    NA
##  2 MX17004  2010     1 tmin       NA  NA    NA      NA  NA      NA    NA    NA
##  3 MX17004  2010     2 tmax       NA  27.3  24.1    NA  NA      NA    NA    NA
##  4 MX17004  2010     2 tmin       NA  14.4  14.4    NA  NA      NA    NA    NA
##  5 MX17004  2010     3 tmax       NA  NA    NA      NA  32.1    NA    NA    NA
##  6 MX17004  2010     3 tmin       NA  NA    NA      NA  14.2    NA    NA    NA
##  7 MX17004  2010     4 tmax       NA  NA    NA      NA  NA      NA    NA    NA
##  8 MX17004  2010     4 tmin       NA  NA    NA      NA  NA      NA    NA    NA
##  9 MX17004  2010     5 tmax       NA  NA    NA      NA  NA      NA    NA    NA
## 10 MX17004  2010     5 tmin       NA  NA    NA      NA  NA      NA    NA    NA
## # ℹ 12 more rows
## # ℹ 23 more variables: d9 <lgl>, d10 <dbl>, d11 <dbl>, d12 <lgl>, d13 <dbl>,
## #   d14 <dbl>, d15 <dbl>, d16 <dbl>, d17 <dbl>, d18 <lgl>, d19 <lgl>,
## #   d20 <lgl>, d21 <lgl>, d22 <lgl>, d23 <dbl>, d24 <lgl>, d25 <dbl>,
## #   d26 <dbl>, d27 <dbl>, d28 <dbl>, d29 <dbl>, d30 <dbl>, d31 <dbl>
```
…
# Get the days in a column

``` r
weather2 <- weather %>% 
  pivot_longer(
    d1:d31, 
    names_to = "day", 
    values_to = "value", 
    values_drop_na = TRUE # Missing values are implicit in the long format
  ) 
weather2
```

```
## # A tibble: 66 × 6
##    id       year month element day   value
##    <chr>   <int> <int> <chr>   <chr> <dbl>
##  1 MX17004  2010     1 tmax    d30    27.8
##  2 MX17004  2010     1 tmin    d30    14.5
##  3 MX17004  2010     2 tmax    d2     27.3
##  4 MX17004  2010     2 tmax    d3     24.1
##  5 MX17004  2010     2 tmax    d11    29.7
##  6 MX17004  2010     2 tmax    d23    29.9
##  7 MX17004  2010     2 tmin    d2     14.4
##  8 MX17004  2010     2 tmin    d3     14.4
##  9 MX17004  2010     2 tmin    d11    13.4
## 10 MX17004  2010     2 tmin    d23    10.7
## # ℹ 56 more rows
```

---

# Pivot the `element` column wider

.pull-left[

``` r
weather2
```

```
## # A tibble: 66 × 6
##    id       year month element day   value
##    <chr>   <int> <int> <chr>   <chr> <dbl>
##  1 MX17004  2010     1 tmax    d30    27.8
##  2 MX17004  2010     1 tmin    d30    14.5
##  3 MX17004  2010     2 tmax    d2     27.3
##  4 MX17004  2010     2 tmax    d3     24.1
##  5 MX17004  2010     2 tmax    d11    29.7
##  6 MX17004  2010     2 tmax    d23    29.9
##  7 MX17004  2010     2 tmin    d2     14.4
##  8 MX17004  2010     2 tmin    d3     14.4
##  9 MX17004  2010     2 tmin    d11    13.4
## 10 MX17004  2010     2 tmin    d23    10.7
## # ℹ 56 more rows
```
]
.pull-right[

``` r
weather2 %>% 
  pivot_wider(names_from = element, 
              values_from = value)
```

```
## # A tibble: 33 × 6
##    id       year month day    tmax  tmin
##    <chr>   <int> <int> <chr> <dbl> <dbl>
##  1 MX17004  2010     1 d30    27.8  14.5
##  2 MX17004  2010     2 d2     27.3  14.4
##  3 MX17004  2010     2 d3     24.1  14.4
##  4 MX17004  2010     2 d11    29.7  13.4
##  5 MX17004  2010     2 d23    29.9  10.7
##  6 MX17004  2010     3 d5     32.1  14.2
##  7 MX17004  2010     3 d10    34.5  16.8
##  8 MX17004  2010     3 d16    31.1  17.6
##  9 MX17004  2010     4 d27    36.3  16.7
## 10 MX17004  2010     5 d27    33.2  18.2
## # ℹ 23 more rows
```
…
---

# Example data set

The infamous `flights` dataset in the `nycflights13` package

``` r
library(tidyverse) # pak::pkg_install("nycflights13")
library(nycflights13)
flights
```

```
## # A tibble: 336,776 × 19
##     year month   day dep_time sched_dep_time dep_delay arr_time sched_arr_time
##    <int> <int> <int>    <int>          <int>     <dbl>    <int>          <int>
##  1  2013     1     1      517            515         2      830            819
##  2  2013     1     1      533            529         4      850            830
##  3  2013     1     1      542            540         2      923            850
##  4  2013     1     1      544            545        -1     1004           1022
##  5  2013     1     1      554            600        -6      812            837
##  6  2013     1     1      554            558        -4      740            728
##  7  2013     1     1      555            600        -5      913            854
##  8  2013     1     1      557            600        -3      709            723
##  9  2013     1     1      557            600        -3      838            846
## 10  2013     1     1      558            600        -2      753            745
## # ℹ 336,766 more rows
## # ℹ 11 more variables: arr_delay <dbl>, carrier <chr>, flight <int>,
## #   tailnum <chr>, origin <chr>, dest <chr>, air_time <dbl>, distance <dbl>,
## #   hour <dbl>, minute <dbl>, time_hour <dttm>
```
…
---

# Selecting rows using `filter`

.pull-left[
`filter()` allows you to subset observations based on their values

``` r
filter(flights, month == 1 & day == 2)
```

```
## # A tibble: 943 × 19
##     year month   day dep_time sched_dep_time dep_delay arr_time sched_arr_time
##    <int> <int> <int>    <int>          <int>     <dbl>    <int>          <int>
##  1  2013     1     2       42           2359        43      518            442
##  2  2013     1     2      126           2250       156      233           2359
##  3  2013     1     2      458            500        -2      703            650
##  4  2013     1     2      512            515        -3      809            819
##  5  2013     1     2      535            540        -5      831            850
##  6  2013     1     2      536            529         7      840            828
##  7  2013     1     2      539            545        -6      959           1022
##  8  2013     1     2      554            600        -6      845            901
##  9  2013     1     2      554            600        -6      841            851
## 10  2013     1     2      554            600        -6      909            858
## # ℹ 933 more rows
## # ℹ 11 more variables: arr_delay <dbl>, carrier <chr>, flight <int>,
## #   tailnum <chr>, origin <chr>, dest <chr>, air_time <dbl>, distance <dbl>,
## #   hour <dbl>, minute <dbl>, time_hour <dttm>
```
…
---

# Filter and the `%in%` operator

``` r
sep_oct <- filter(flights, month %in% c(9, 10))
sep_oct
```

```
## # A tibble: 56,463 × 19
##     year month   day dep_time sched_dep_time dep_delay arr_time sched_arr_time
##    <int> <int> <int>    <int>          <int>     <dbl>    <int>          <int>
##  1  2013    10     1      447            500       -13      614            648
##  2  2013    10     1      522            517         5      735            757
##  3  2013    10     1      536            545        -9      809            855
##  4  2013    10     1      539            545        -6      801            827
##  5  2013    10     1      539            545        -6      917            933
##  6  2013    10     1      544            550        -6      912            932
##  7  2013    10     1      549            600       -11      653            716
##  8  2013    10     1      550            600       -10      648            700
##  9  2013    10     1      550            600       -10      649            659
## 10  2013    10     1      551            600        -9      727            730
## # ℹ 56,453 more rows
## # ℹ 11 more variables: arr_delay <dbl>, carrier <chr>, flight <int>,
## #   tailnum <chr>, origin <chr>, dest <chr>, air_time <dbl>, distance <dbl>,
## #   hour <dbl>, minute <dbl>, time_hour <dttm>
```
…
---

# Selecting columns using `select`

.pull-left[
- `filter` extracts rows
- `select` extracts columns

``` r
select(flights, year, month, day)
```

```
## # A tibble: 336,776 × 3
##     year month   day
##    <int> <int> <int>
##  1  2013     1     1
##  2  2013     1     1
##  3  2013     1     1
##  4  2013     1     1
##  5  2013     1     1
##  6  2013     1     1
##  7  2013     1     1
##  8  2013     1     1
##  9  2013     1     1
## 10  2013     1     1
## # ℹ 336,766 more rows
```
] 
.pull-right[
- Can match column names

``` r
select(flights, year, month, contains("delay"))
```

```
## # A tibble: 336,776 × 4
##     year month dep_delay arr_delay
##    <int> <int>     <dbl>     <dbl>
##  1  2013     1         2        11
##  2  2013     1         4        20
##  3  2013     1         2        33
##  4  2013     1        -1       -18
##  5  2013     1        -6       -25
##  6  2013     1        -4        12
##  7  2013     1        -5        19
##  8  2013     1        -3       -14
##  9  2013     1        -3        -8
## 10  2013     1        -2         8
## # ℹ 336,766 more rows
```
…
- In pandas: `flights[['year', 'month', 'day']]`

---

# Column ranges and `select`

.pull-left[
- we can pass several ranges

``` r
select(flights, year:day, dest:hour)
```

```
## # A tibble: 336,776 × 7
##     year month   day dest  air_time distance  hour
##    <int> <int> <int> <chr>    <dbl>    <dbl> <dbl>
##  1  2013     1     1 IAH        227     1400     5
##  2  2013     1     1 IAH        227     1416     5
##  3  2013     1     1 MIA        160     1089     5
##  4  2013     1     1 BQN        183     1576     5
##  5  2013     1     1 ATL        116      762     6
##  6  2013     1     1 ORD        150      719     5
##  7  2013     1     1 FLL        158     1065     6
##  8  2013     1     1 IAD         53      229     6
##  9  2013     1     1 MCO        140      944     6
## 10  2013     1     1 ORD        138      733     6
## # ℹ 336,766 more rows
```
] 
--
.pull-right[
- Or exclude columns and ranges

``` r
select(flights, -year, -(dest:hour))
```

```
## # A tibble: 336,776 × 14
##    month   day dep_time sched_dep_time dep_delay arr_time sched_arr_time
##    <int> <int>    <int>          <int>     <dbl>    <int>          <int>
##  1     1     1      517            515         2      830            819
##  2     1     1      533            529         4      850            830
##  3     1     1      542            540         2      923            850
##  4     1     1      544            545        -1     1004           1022
##  5     1     1      554            600        -6      812            837
##  6     1     1      554            558        -4      740            728
##  7     1     1      555            600        -5      913            854
##  8     1     1      557            600        -3      709            723
##  9     1     1      557            600        -3      838            846
## 10     1     1      558            600        -2      753            745
## # ℹ 336,766 more rows
## # ℹ 7 more variables: arr_delay <dbl>, carrier <chr>, flight <int>,
## #   tailnum <chr>, origin <chr>, minute <dbl>, time_hour <dttm>
```
…
# Changing columns using `mutate`
.pull-left[
- `mutate()` can add or modify the columns in a data.frame

``` r
flights %>%
  mutate(
    gain = dep_delay - arr_delay,
    speed = distance / air_time * 60
  ) %>% 
  select(year:day, gain, speed)
```

```
## # A tibble: 336,776 × 5
##     year month   day  gain speed
##    <int> <int> <int> <dbl> <dbl>
##  1  2013     1     1    -9  370.
##  2  2013     1     1   -16  374.
##  3  2013     1     1   -31  408.
##  4  2013     1     1    17  517.
##  5  2013     1     1    19  394.
##  6  2013     1     1   -16  288.
##  7  2013     1     1   -24  404.
##  8  2013     1     1    11  259.
##  9  2013     1     1     5  405.
## 10  2013     1     1   -10  319.
## # ℹ 336,766 more rows
```
…
