Data Wrangling 2
…
---

# Grouping using `group_by`

- We can also separate our processing using some grouping variable
- All sensible operations happen inside groups in a grouped data.frame

```r
flights %>%
  group_by(carrier) %>%
  count(origin)
```

```
## # A tibble: 32 × 3
## # Groups:   carrier [14]
##    carrier origin     n
##    <chr>   <chr>  <int>
##  1 AA      EWR     2649
##  2 AA      JFK    11923
##  3 AA      LGA    11730
##  4 AS      EWR      574
##  5 B6      EWR     5473
##  6 B6      JFK    34220
##  7 B6      LGA     4786
##  8 DL      EWR     4153
##  9 DL      JFK    18860
## 10 DL      LGA    18670
## # ℹ 22 more rows
```
…
